<?xml version="1.0" encoding="utf-8"?>
<!-- Generator: Adobe Illustrator 23.0.0, SVG Export Plug-In . SVG Version: 6.00 Build 0)  -->
<svg version="1.1" id="Layer_1" xmlns="http://www.w3.org/2000/svg" xmlns:xlink="http://www.w3.org/1999/xlink" x="0px" y="0px"
	 viewBox="0 0 180 180" style="enable-background:new 0 0 180 180;" xml:space="preserve">
<style type="text/css">
	.st0{fill:#27B4F1;}
	.st1{fill:#FDFEFE;}
</style>
<g>
	<path class="st0" d="M177,90.5c0,48.4-39.2,87.5-87.6,87.5C41.1,178,2,138.8,2,90.5C2,42.1,41.2,3,89.6,3
		C137.9,3,177,42.2,177,90.5z M99.4,121c0-8.1,0-16.1,0-24.2c0-1.3,0.3-1.7,1.6-1.7c3.9,0.1,7.8,0,11.7,0c0.9,0,1.4-0.1,1.5-1.3
		c0.5-5.1,1-10.2,1.6-15.3c0.2-1.3-0.2-1.7-1.5-1.7c-4.4,0.1-8.9,0-13.3,0.1c-1.4,0-1.8-0.4-1.7-1.8c0.1-2.9,0-5.8,0-8.6
		c0-3.7,1.7-5.3,5.4-5.4c3.2,0,6.4,0,9.7,0c0.9,0,1.4-0.2,1.3-1.2c0-5.1,0-10.1,0-15.2c0-1-0.3-1.3-1.3-1.3c-5.5,0-11-0.1-16.6,0
		c-11.4,0.3-18.9,7.3-20.1,18.7c-0.5,4.4-0.2,8.7-0.2,13.1c0,1.2-0.3,1.6-1.5,1.6c-2.5-0.1-5.1,0-7.6,0c-1,0-1.3,0.3-1.3,1.3
		c0,5.2,0,10.4,0,15.5c0,1.1,0.4,1.4,1.4,1.3c2.4-0.1,4.7,0.1,7.1-0.1c1.5-0.1,1.9,0.3,1.9,1.9c-0.1,16,0,32-0.1,48
		c0,1.3,0.3,1.8,1.7,1.8c6.2-0.1,12.3-0.1,18.5,0c1.3,0,1.7-0.3,1.6-1.6C99.4,137.2,99.4,129.1,99.4,121z"/>
	<path class="st1" d="M99.4,121c0,8.1,0,16.1,0,24.2c0,1.3-0.4,1.7-1.6,1.6c-6.2-0.1-12.3-0.1-18.5,0c-1.4,0-1.7-0.4-1.7-1.8
		c0-16,0-32,0.1-48c0-1.6-0.4-2-1.9-1.9c-2.4,0.1-4.7,0-7.1,0.1c-1,0-1.4-0.2-1.4-1.3c0.1-5.2,0-10.4,0-15.5c0-1,0.3-1.3,1.3-1.3
		c2.5,0.1,5.1,0,7.6,0c1.2,0,1.5-0.4,1.5-1.6c0-4.4-0.3-8.7,0.2-13.1c1.2-11.4,8.7-18.4,20.1-18.7c5.5-0.1,11,0,16.6,0
		c1,0,1.3,0.3,1.3,1.3c0,5.1,0,10.1,0,15.2c0,1.1-0.4,1.2-1.3,1.2c-3.2,0-6.4,0-9.7,0c-3.7,0-5.4,1.6-5.4,5.4c0,2.9,0.1,5.8,0,8.6
		c0,1.3,0.3,1.8,1.7,1.8c4.4-0.1,8.9,0,13.3-0.1c1.3,0,1.7,0.3,1.5,1.7c-0.6,5.1-1.1,10.2-1.6,15.3c-0.1,1.1-0.6,1.3-1.5,1.3
		c-3.9,0-7.8,0-11.7,0c-1.3,0-1.6,0.4-1.6,1.7C99.4,104.9,99.4,113,99.4,121z"/>
</g>
</svg>
