<?xml version="1.0" encoding="utf-8"?>
<!-- Generator: Adobe Illustrator 23.0.0, SVG Export Plug-In . SVG Version: 6.00 Build 0)  -->
<svg version="1.1" id="Layer_1" xmlns="http://www.w3.org/2000/svg" xmlns:xlink="http://www.w3.org/1999/xlink" x="0px" y="0px"
	 viewBox="0 0 180 180" style="enable-background:new 0 0 180 180;" xml:space="preserve">
<style type="text/css">
	.st0{fill:#525252;}
	.st1{fill:#F9F9F9;}
</style>
<g>
	<path class="st0" d="M99.9,6.8c50.1,10.4,77.5,60,61.9,112.1c-0.8,2.7-1.7,5-0.6,8c4.6,12.5,11,24.6,13.2,37.8
		c0.2,1.1,0.6,2.4,0,3.4c-1.8,3-6.1,2-9.5,0.2c-4.8-2.5-10.2-3.9-14.9-6.6c-8.2-4.6-15.3-5.1-22.9,1.9c-4.8,4.4-11.4,6.1-17.5,8.4
		c-5.2,1.9-11.7,3.2-15.7,3.5c-3.1,0.2-9.3,0.3-12.4,0c-1-0.1-2.7-0.5-4.1-0.8c-33.1-6.5-55-26.7-65.3-61.5
		c-1.5-5.1-2.4-11.2-2.6-15c-0.2-3.8-0.1-11.3,0-15.1c0-1.2,0.1-3.2,0.4-4.7c6.1-34.2,24.9-55.3,54.7-69C76.4,3.9,99.3,6.7,99.9,6.8
		z M48.7,101.4c5.6-0.1,10.5-5.3,10.4-11.1c-0.1-5.8-5.3-11.1-10.7-11C43,79.3,38,84.8,38,90.5C38.1,96.5,42.9,101.4,48.7,101.4z
		 M85.8,101.4c5.6,0,10.6-5.1,10.6-11c0-5.8-5.1-11.2-10.5-11.2c-5.4,0-10.5,5.4-10.6,11.2C75.3,96.3,80.2,101.4,85.8,101.4z
		 M123.3,101.4c5.6-0.1,10.5-5.4,10.4-11.2c-0.2-5.8-5.4-11.1-10.8-11c-5.4,0.1-10.4,5.7-10.3,11.4
		C112.7,96.5,117.6,101.5,123.3,101.4z"/>
	<path class="st1" d="M48.7,101.4c-5.8,0.1-10.6-4.8-10.7-10.9c0-5.7,5-11.2,10.4-11.3c5.4-0.1,10.6,5.3,10.7,11
		C59.3,96,54.3,101.3,48.7,101.4z"/>
	<path class="st1" d="M85.8,101.4c-5.7,0-10.6-5.1-10.5-11c0-5.8,5.2-11.2,10.6-11.2c5.4,0,10.5,5.4,10.5,11.2
		C96.4,96.2,91.5,101.4,85.8,101.4z"/>
	<path class="st1" d="M123.3,101.4c-5.7,0.1-10.6-4.8-10.7-10.8c-0.1-5.7,4.9-11.3,10.3-11.4c5.4-0.1,10.6,5.2,10.8,11
		C133.9,96,129,101.3,123.3,101.4z"/>
</g>
</svg>
