<?xml version="1.0" encoding="utf-8"?>
<!-- Generator: Adobe Illustrator 23.0.0, SVG Export Plug-In . SVG Version: 6.00 Build 0)  -->
<svg version="1.1" id="Layer_1" xmlns="http://www.w3.org/2000/svg" xmlns:xlink="http://www.w3.org/1999/xlink" x="0px" y="0px"
	 viewBox="0 0 180 180" style="enable-background:new 0 0 180 180;" xml:space="preserve">
<style type="text/css">
	.st0{fill:#27B4F1;}
	.st1{fill:#FDFEFE;}
	.st2{fill:#FCFDFE;}
</style>
<g>
	<path class="st0" d="M177,90.5c0,48.3-39.2,87.5-87.6,87.5C41.1,178,2,138.8,2,90.5C2,42.2,41.2,3,89.6,3
		C137.9,3,177,42.2,177,90.5z M86.8,105.4c-3.9-1.6-7.8-3.2-11.6-4.8c-1-0.4-1.8-0.4-2.7,0.1c-3,1.5-5.5,3.6-7.6,6.1
		c-5.1,6-8.6,12.6-8.6,20.7c0,5.1,2.8,8.8,7.7,10.1c6.5,1.8,12.4,0.4,17.8-3.6c5.5-4.1,9.3-9.7,12.4-15.7
		c5.2-10.2,8.3-21.1,10.4-32.3c1.7-9.2,2.4-18.4,0.3-27.5C102.4,47.8,96.7,40,86.1,36c-5.8-2.2-13.1,0.2-16.6,5.2
		c-1.5,2.1-2.6,4.5-3.4,6.9c-1.4,4.6-1.9,9.4-2.2,14.3c-0.8,9.9,1.5,19,7.2,27.2c4.3,6.2,9.8,11.1,15.8,15.5
		C86.9,105.2,86.8,105.3,86.8,105.4z M134.8,69.3c0-0.5,0-1,0-1.5c-0.4-3.2-2-4.3-5.1-3.6c-1.9,0.4-3.5,1.5-4.9,2.7
		c-3,2.6-5.4,5.8-7.7,9.1c-5.5,8.2-9.7,17.2-13.8,26.2c-2.6,5.8-5.3,11.5-7.3,17.5c-1,3.1-1.8,6.2-1.8,9.4c0,2.1,0.3,4.2,2.4,5.4
		c2.1,1.1,4.1,0.5,6-0.7c2.1-1.2,3.6-3.1,4.9-5c4.2-6.5,6.2-13.7,7.2-21.2c0.1-1,0.5-1.8,1.2-2.6c5.2-5.7,9.9-11.8,13.5-18.7
		C132.2,80.9,134.5,75.4,134.8,69.3z"/>
	<path class="st1" d="M87,105.1c-6.1-4.3-11.6-9.3-15.8-15.5c-5.7-8.2-8-17.3-7.2-27.2c0.4-4.8,0.8-9.6,2.2-14.3
		c0.8-2.5,1.9-4.8,3.4-6.9c3.4-4.9,10.8-7.4,16.6-5.2c10.5,4,16.2,11.8,18.7,22.4c2.1,9.2,1.4,18.4-0.3,27.5
		c-2.1,11.2-5.2,22.1-10.4,32.3c-3.1,6-6.8,11.6-12.4,15.7c-5.3,3.9-11.3,5.4-17.8,3.6c-4.9-1.3-7.7-5-7.7-10.1
		c-0.1-8.1,3.5-14.7,8.6-20.7c2.1-2.5,4.7-4.6,7.6-6.1c1-0.5,1.7-0.5,2.7-0.1c3.8,1.7,7.7,3.2,11.6,4.8c0.2,0.2,0.5,0.2,0.7,0
		C87.3,105.3,87.2,105.2,87,105.1z"/>
	<path class="st2" d="M134.8,69.3c-0.3,6.1-2.6,11.6-5.4,16.9c-3.6,6.9-8.2,13-13.5,18.7c-0.7,0.8-1,1.5-1.2,2.6
		c-1,7.5-3,14.7-7.2,21.2c-1.3,2-2.8,3.8-4.9,5c-1.9,1.1-3.9,1.8-6,0.7c-2.1-1.1-2.4-3.3-2.4-5.4c0-3.2,0.8-6.4,1.8-9.4
		c1.9-6,4.7-11.7,7.3-17.5c4.1-9,8.2-18,13.8-26.2c2.2-3.3,4.6-6.4,7.7-9.1c1.5-1.2,3-2.3,4.9-2.7c3.1-0.7,4.7,0.5,5.1,3.6
		C134.9,68.3,134.8,68.8,134.8,69.3z"/>
	<path class="st0" d="M87,105.1c0.2,0.1,0.3,0.2,0.5,0.3c-0.2,0.2-0.5,0.1-0.7,0C86.8,105.3,86.9,105.2,87,105.1z"/>
</g>
</svg>
