<?xml version="1.0" encoding="utf-8"?>
<!-- Generator: Adobe Illustrator 23.0.0, SVG Export Plug-In . SVG Version: 6.00 Build 0)  -->
<svg version="1.1" id="Layer_1" xmlns="http://www.w3.org/2000/svg" xmlns:xlink="http://www.w3.org/1999/xlink" x="0px" y="0px"
	 viewBox="0 0 180 180" style="enable-background:new 0 0 180 180;" xml:space="preserve">
<style type="text/css">
	.st0{fill:#28B5F1;}
	.st1{fill:#FBFDFE;}
	.st2{fill:#F8FCFE;}
</style>
<g>
	<path class="st0" d="M177,90.6c0,48.4-39.3,87.5-87.6,87.4C41.1,178,2,138.7,2,90.4C2,42.1,41.3,3,89.6,3
		C137.9,3,177,42.3,177,90.6z M115,77.9c-0.2,0.5-0.3,0.6-0.4,0.7c-6.7,6.2-13.4,12.5-20,18.7c-0.9,0.8-1.2,0.3-1.7-0.4
		C85.9,87,79,77,72.3,66.8c-0.2-0.3-0.6-0.6-0.5-1c0.2-0.6,0.8-0.3,1.2-0.3c3.5,0,6.9,0,10.4,0c1.1,0,1.6-0.3,1.5-1.5
		c-0.1-1,0-2.1,0-3.1c0.2-2.3,0.2-2.3-2.1-2.3c-14.8,0-29.7,0-44.5,0c-1.7,0-3.9-0.8-5,0.4c-1,1.1-0.2,3.3-0.3,5
		c-0.1,1.2,0.4,1.5,1.5,1.4c4.3,0,8.6,0,12.9,0c1.4,0,2.4,0.4,3.3,1.4c4.2,4.3,8.1,8.8,12,13.4c6.8,8.1,13.6,16.2,19.8,24.8
		c0.5,0.8,1.2,1.5,1.3,2.4c0.5,6.4,0.7,12.9,0.2,19.3c-0.2,2.5-0.6,2.7-3.1,3.1c-3.8,0.5-7.7,0.2-11.5,0.3c-1.4,0-3.2-0.6-4.2,0.2
		c-1,0.9-0.2,2.8-0.4,4.3c-0.4,1.9,0.5,2.1,2.1,2.1c16.2-0.1,32.3-0.1,48.5-0.1c1.3,0,1.7-0.3,1.7-1.6c0-1,0.1-2.1,0.2-3.1
		c0.2-1.3-0.3-1.7-1.6-1.7c-5.2,0-10.4-0.2-15.5-0.1c-1.7,0-2.1-0.6-2.1-2.1c-0.1-5.7-0.4-11.4-0.4-17.1c0-2.5,0.7-4.5,2.4-6.2
		c0.5-0.5,1-1.1,1.5-1.6c8.7-8.6,18.2-16.2,28.2-23.3c1.1-0.7,2.2-1.2,3.4-1.5c3-0.6,6-0.2,8.9-0.3c0.8,0,1.5,0,1.9-0.8
		c0.9-1.5,2.2-2.7,3.3-4c0.4-0.5,1.1-0.9,0.9-1.6c-0.3-0.7-1.1-0.3-1.7-0.3c-14.6,0-29.2,0-43.8,0c-0.3,0-0.7,0-1,0
		c-0.8,0-1,0.3-0.8,1.1c0.4,1.3,0.8,2.5,1.1,3.8c0.3,1.3,0.9,1.9,2.3,1.8C107.7,77.9,111.2,77.9,115,77.9z M137.4,103
		c0.1,0,0.2,0,0.2,0c0,5.6,0,11.3,0,16.9c0,0.8-0.1,1.6,1.1,1.7c2,0.1,4,0.2,6,0.4c1,0.1,1.4-0.3,1.7-1.2c3-11.1,6-22.1,9-33.2
		c0.3-1,0.1-1.3-1-1.4c-5.1-0.4-10.3-0.9-15.4-1.4c-1.4-0.1-1.7,0.3-1.6,1.5C137.4,91.9,137.4,97.5,137.4,103z M136.2,131.2
		c0,1.4,0.1,2.4,0,3.4c-0.1,0.9,0.3,1.4,1.2,1.4c2.2,0.1,4.5,0.3,6.7,0.5c0.7,0.1,1-0.2,1.1-0.9c0.3-2.2,0.7-4.4,1-6.6
		c0.1-0.7-0.1-1.1-0.8-1.1c-1.7-0.1-3.3-0.2-5-0.3c-1.4-0.1-3.1-1-3.9-0.2C135.6,128.3,136.4,130.1,136.2,131.2z"/>
	<path class="st1" d="M115,77.9c-3.8,0-7.3-0.1-10.8,0c-1.5,0.1-2.1-0.5-2.3-1.8c-0.3-1.3-0.7-2.5-1.1-3.8c-0.2-0.7,0-1.1,0.8-1.1
		c0.3,0,0.7,0,1,0c14.6,0,29.2,0,43.8,0c0.6,0,1.4-0.4,1.7,0.3c0.2,0.6-0.5,1.1-0.9,1.6c-1.1,1.3-2.4,2.5-3.3,4
		c-0.5,0.8-1.2,0.8-1.9,0.8c-3,0.1-6-0.3-8.9,0.3c-1.3,0.3-2.4,0.8-3.4,1.5c-10,7-19.5,14.6-28.2,23.3c-0.5,0.5-1,1.1-1.5,1.6
		c-1.7,1.7-2.4,3.7-2.4,6.2c0,5.7,0.3,11.4,0.4,17.1c0,1.4,0.4,2.1,2.1,2.1c5.2-0.1,10.4,0.1,15.5,0.1c1.3,0,1.8,0.4,1.6,1.7
		c-0.1,1-0.2,2.1-0.2,3.1c0.1,1.3-0.4,1.6-1.7,1.6c-16.2,0-32.3,0-48.5,0.1c-1.7,0-2.5-0.2-2.1-2.1c0.3-1.4-0.6-3.3,0.4-4.3
		c0.9-0.9,2.8-0.2,4.2-0.2c3.8,0,7.7,0.3,11.5-0.3c2.5-0.3,2.9-0.6,3.1-3.1c0.5-6.4,0.3-12.9-0.2-19.3c-0.1-0.9-0.7-1.7-1.3-2.4
		c-6.1-8.6-12.9-16.7-19.8-24.8c-3.9-4.6-7.8-9.1-12-13.4c-1-1-1.9-1.4-3.3-1.4c-4.3,0.1-8.6,0-12.9,0c-1.1,0-1.6-0.2-1.5-1.4
		c0.2-1.7-0.7-3.9,0.3-5c1-1.1,3.3-0.4,5-0.4c14.8,0,29.7,0,44.5,0c2.3,0,2.3,0,2.1,2.3c-0.1,1-0.1,2.1,0,3.1
		c0.1,1.2-0.4,1.5-1.5,1.5c-3.5-0.1-6.9,0-10.4,0c-0.4,0-1-0.2-1.2,0.3c-0.2,0.4,0.3,0.7,0.5,1C79,77,85.9,87,92.8,97
		c0.5,0.7,0.8,1.2,1.7,0.4c6.7-6.3,13.4-12.5,20-18.7C114.7,78.6,114.7,78.4,115,77.9z"/>
	<path class="st1" d="M137.4,103c0-5.6,0-11.1,0-16.7c0-1.3,0.3-1.7,1.6-1.5c5.1,0.6,10.3,1,15.4,1.4c1,0.1,1.3,0.4,1,1.4
		c-3,11.1-6,22.1-9,33.2c-0.2,0.9-0.6,1.4-1.7,1.2c-2-0.2-4-0.3-6-0.4c-1.2-0.1-1.1-0.9-1.1-1.7c0-5.6,0-11.3,0-16.9
		C137.5,103,137.4,103,137.4,103z"/>
	<path class="st2" d="M136.2,131.2c0.1-1.1-0.7-2.9,0.3-3.8c0.9-0.8,2.6,0.1,3.9,0.2c1.7,0.1,3.3,0.2,5,0.3c0.8,0,1,0.4,0.8,1.1
		c-0.4,2.2-0.7,4.4-1,6.6c-0.1,0.8-0.4,1-1.1,0.9c-2.2-0.2-4.5-0.4-6.7-0.5c-0.9-0.1-1.3-0.5-1.2-1.4
		C136.3,133.6,136.2,132.5,136.2,131.2z"/>
</g>
</svg>
